^S:\PROJECTS\LUNAW8\CHAPTER 24 QUATERNIONS\QUATERNIONS\FX\BASIC.FX
fxc /Fc /Od /Zi /T fx_5_0 /Fo "FX\\Basic.fxo" "S:\Projects\LunaW8\Chapter 24 Quaternions\Quaternions\FX\Basic.fx"
^C:\USERS\BEREND\DESKTOP\GIT\ADVANCED-GRAPHICS-PROGRAMMING\CHAPTER 24 QUATERNIONS\QUATERNIONS\FX\BASIC.FX
fxc /Fc /Od /Zi /T fx_5_0 /Fo "FX\\Basic.fxo" "C:\Users\Berend\Desktop\GIT\advanced-graphics-programming\Chapter 24 Quaternions\Quaternions\FX\Basic.fx"
