^S:\PROJECTS\LUNAW8\CHAPTER 8 TEXTURING\CRATE\FX\BASIC.FX
fxc /Fc /Od /Zi /T fx_5_0 /Fo "FX\\Basic.fxo" "S:\Projects\LunaW8\Chapter 8 Texturing\Crate\FX\Basic.fx"
^C:\USERS\BEREND\DESKTOP\GIT\ADVANCED-GRAPHICS-PROGRAMMING\CHAPTER 8 TEXTURING\CRATE\FX\BASIC.FX
fxc /Fc /Od /Zi /T fx_5_0 /Fo "FX\\Basic.fxo" "C:\Users\Berend\Desktop\GIT\advanced-graphics-programming\Chapter 8 Texturing\Crate\FX\Basic.fx"
