^S:\PROJECTS\LUNAW8\CHAPTER 7 LIGHTING\LITSKULL\FX\BASIC.FX
S:\PROJECTS\LUNAW8\CHAPTER 7 LIGHTING\LITSKULL\FX\BASIC.FXO
^C:\USERS\BEREND\DESKTOP\GIT\ADVANCED-GRAPHICS-PROGRAMMING\CHAPTER 7 LIGHTING\LITSKULL\FX\BASIC.FX
C:\USERS\BEREND\DESKTOP\GIT\ADVANCED-GRAPHICS-PROGRAMMING\CHAPTER 7 LIGHTING\LITSKULL\FX\BASIC.FXO
