^S:\PROJECTS\LUNAW8\CHAPTER 11 THE GEOMETRY SHADER\TREEBILLBOARD\EFFECTS.CPP|S:\PROJECTS\LUNAW8\CHAPTER 11 THE GEOMETRY SHADER\TREEBILLBOARD\RENDERSTATES.CPP|S:\PROJECTS\LUNAW8\CHAPTER 11 THE GEOMETRY SHADER\TREEBILLBOARD\TREEBILLBOARDDEMO.CPP|S:\PROJECTS\LUNAW8\CHAPTER 11 THE GEOMETRY SHADER\TREEBILLBOARD\VERTEX.CPP|S:\PROJECTS\LUNAW8\COMMON\D3DAPP.CPP|S:\PROJECTS\LUNAW8\COMMON\D3DUTIL.CPP|S:\PROJECTS\LUNAW8\COMMON\GAMETIMER.CPP|S:\PROJECTS\LUNAW8\COMMON\GEOMETRYGENERATOR.CPP|S:\PROJECTS\LUNAW8\COMMON\LIGHTHELPER.CPP|S:\PROJECTS\LUNAW8\COMMON\MATHHELPER.CPP|S:\PROJECTS\LUNAW8\COMMON\WAVES.CPP
S:\PROJECTS\LUNAW8\CHAPTER 11 THE GEOMETRY SHADER\TREEBILLBOARD\DEBUG\VC120.PDB
S:\PROJECTS\LUNAW8\CHAPTER 11 THE GEOMETRY SHADER\TREEBILLBOARD\DEBUG\VC120.IDB
S:\PROJECTS\LUNAW8\CHAPTER 11 THE GEOMETRY SHADER\TREEBILLBOARD\DEBUG\D3DAPP.OBJ
S:\PROJECTS\LUNAW8\CHAPTER 11 THE GEOMETRY SHADER\TREEBILLBOARD\DEBUG\D3DUTIL.OBJ
S:\PROJECTS\LUNAW8\CHAPTER 11 THE GEOMETRY SHADER\TREEBILLBOARD\DEBUG\GAMETIMER.OBJ
S:\PROJECTS\LUNAW8\CHAPTER 11 THE GEOMETRY SHADER\TREEBILLBOARD\DEBUG\GEOMETRYGENERATOR.OBJ
S:\PROJECTS\LUNAW8\CHAPTER 11 THE GEOMETRY SHADER\TREEBILLBOARD\DEBUG\LIGHTHELPER.OBJ
S:\PROJECTS\LUNAW8\CHAPTER 11 THE GEOMETRY SHADER\TREEBILLBOARD\DEBUG\MATHHELPER.OBJ
S:\PROJECTS\LUNAW8\CHAPTER 11 THE GEOMETRY SHADER\TREEBILLBOARD\DEBUG\WAVES.OBJ
S:\PROJECTS\LUNAW8\CHAPTER 11 THE GEOMETRY SHADER\TREEBILLBOARD\DEBUG\EFFECTS.OBJ
S:\PROJECTS\LUNAW8\CHAPTER 11 THE GEOMETRY SHADER\TREEBILLBOARD\DEBUG\RENDERSTATES.OBJ
S:\PROJECTS\LUNAW8\CHAPTER 11 THE GEOMETRY SHADER\TREEBILLBOARD\DEBUG\TREEBILLBOARDDEMO.OBJ
S:\PROJECTS\LUNAW8\CHAPTER 11 THE GEOMETRY SHADER\TREEBILLBOARD\DEBUG\VERTEX.OBJ
^S:\PROJECTS\LUNAW8\COMMON\D3DAPP.CPP
S:\PROJECTS\LUNAW8\CHAPTER 11 THE GEOMETRY SHADER\TREEBILLBOARD\DEBUG\VC120.PDB
^S:\PROJECTS\LUNAW8\COMMON\D3DUTIL.CPP
S:\PROJECTS\LUNAW8\CHAPTER 11 THE GEOMETRY SHADER\TREEBILLBOARD\DEBUG\VC120.PDB
^S:\PROJECTS\LUNAW8\COMMON\GAMETIMER.CPP
S:\PROJECTS\LUNAW8\CHAPTER 11 THE GEOMETRY SHADER\TREEBILLBOARD\DEBUG\VC120.PDB
^S:\PROJECTS\LUNAW8\COMMON\GEOMETRYGENERATOR.CPP
S:\PROJECTS\LUNAW8\CHAPTER 11 THE GEOMETRY SHADER\TREEBILLBOARD\DEBUG\VC120.PDB
^S:\PROJECTS\LUNAW8\COMMON\LIGHTHELPER.CPP
S:\PROJECTS\LUNAW8\CHAPTER 11 THE GEOMETRY SHADER\TREEBILLBOARD\DEBUG\VC120.PDB
^S:\PROJECTS\LUNAW8\COMMON\MATHHELPER.CPP
S:\PROJECTS\LUNAW8\CHAPTER 11 THE GEOMETRY SHADER\TREEBILLBOARD\DEBUG\VC120.PDB
^S:\PROJECTS\LUNAW8\COMMON\WAVES.CPP
S:\PROJECTS\LUNAW8\CHAPTER 11 THE GEOMETRY SHADER\TREEBILLBOARD\DEBUG\VC120.PDB
^S:\PROJECTS\LUNAW8\CHAPTER 11 THE GEOMETRY SHADER\TREEBILLBOARD\EFFECTS.CPP
S:\PROJECTS\LUNAW8\CHAPTER 11 THE GEOMETRY SHADER\TREEBILLBOARD\DEBUG\VC120.PDB
^S:\PROJECTS\LUNAW8\CHAPTER 11 THE GEOMETRY SHADER\TREEBILLBOARD\RENDERSTATES.CPP
S:\PROJECTS\LUNAW8\CHAPTER 11 THE GEOMETRY SHADER\TREEBILLBOARD\DEBUG\VC120.PDB
^S:\PROJECTS\LUNAW8\CHAPTER 11 THE GEOMETRY SHADER\TREEBILLBOARD\TREEBILLBOARDDEMO.CPP
S:\PROJECTS\LUNAW8\CHAPTER 11 THE GEOMETRY SHADER\TREEBILLBOARD\DEBUG\VC120.PDB
^S:\PROJECTS\LUNAW8\CHAPTER 11 THE GEOMETRY SHADER\TREEBILLBOARD\VERTEX.CPP
S:\PROJECTS\LUNAW8\CHAPTER 11 THE GEOMETRY SHADER\TREEBILLBOARD\DEBUG\VC120.PDB
^C:\USERS\BEREND\DESKTOP\GIT\ADVANCED-GRAPHICS-PROGRAMMING\CHAPTER 11 THE GEOMETRY SHADER\TREEBILLBOARD\EFFECTS.CPP|C:\USERS\BEREND\DESKTOP\GIT\ADVANCED-GRAPHICS-PROGRAMMING\CHAPTER 11 THE GEOMETRY SHADER\TREEBILLBOARD\RENDERSTATES.CPP|C:\USERS\BEREND\DESKTOP\GIT\ADVANCED-GRAPHICS-PROGRAMMING\CHAPTER 11 THE GEOMETRY SHADER\TREEBILLBOARD\TREEBILLBOARDDEMO.CPP|C:\USERS\BEREND\DESKTOP\GIT\ADVANCED-GRAPHICS-PROGRAMMING\CHAPTER 11 THE GEOMETRY SHADER\TREEBILLBOARD\VERTEX.CPP|C:\USERS\BEREND\DESKTOP\GIT\ADVANCED-GRAPHICS-PROGRAMMING\COMMON\D3DAPP.CPP|C:\USERS\BEREND\DESKTOP\GIT\ADVANCED-GRAPHICS-PROGRAMMING\COMMON\D3DUTIL.CPP|C:\USERS\BEREND\DESKTOP\GIT\ADVANCED-GRAPHICS-PROGRAMMING\COMMON\GAMETIMER.CPP|C:\USERS\BEREND\DESKTOP\GIT\ADVANCED-GRAPHICS-PROGRAMMING\COMMON\GEOMETRYGENERATOR.CPP|C:\USERS\BEREND\DESKTOP\GIT\ADVANCED-GRAPHICS-PROGRAMMING\COMMON\LIGHTHELPER.CPP|C:\USERS\BEREND\DESKTOP\GIT\ADVANCED-GRAPHICS-PROGRAMMING\COMMON\MATHHELPER.CPP|C:\USERS\BEREND\DESKTOP\GIT\ADVANCED-GRAPHICS-PROGRAMMING\COMMON\WAVES.CPP
C:\USERS\BEREND\DESKTOP\GIT\ADVANCED-GRAPHICS-PROGRAMMING\CHAPTER 11 THE GEOMETRY SHADER\TREEBILLBOARD\DEBUG\VC120.PDB
C:\USERS\BEREND\DESKTOP\GIT\ADVANCED-GRAPHICS-PROGRAMMING\CHAPTER 11 THE GEOMETRY SHADER\TREEBILLBOARD\DEBUG\VC120.IDB
C:\USERS\BEREND\DESKTOP\GIT\ADVANCED-GRAPHICS-PROGRAMMING\CHAPTER 11 THE GEOMETRY SHADER\TREEBILLBOARD\DEBUG\D3DAPP.OBJ
C:\USERS\BEREND\DESKTOP\GIT\ADVANCED-GRAPHICS-PROGRAMMING\CHAPTER 11 THE GEOMETRY SHADER\TREEBILLBOARD\DEBUG\D3DUTIL.OBJ
C:\USERS\BEREND\DESKTOP\GIT\ADVANCED-GRAPHICS-PROGRAMMING\CHAPTER 11 THE GEOMETRY SHADER\TREEBILLBOARD\DEBUG\GAMETIMER.OBJ
C:\USERS\BEREND\DESKTOP\GIT\ADVANCED-GRAPHICS-PROGRAMMING\CHAPTER 11 THE GEOMETRY SHADER\TREEBILLBOARD\DEBUG\GEOMETRYGENERATOR.OBJ
C:\USERS\BEREND\DESKTOP\GIT\ADVANCED-GRAPHICS-PROGRAMMING\CHAPTER 11 THE GEOMETRY SHADER\TREEBILLBOARD\DEBUG\LIGHTHELPER.OBJ
C:\USERS\BEREND\DESKTOP\GIT\ADVANCED-GRAPHICS-PROGRAMMING\CHAPTER 11 THE GEOMETRY SHADER\TREEBILLBOARD\DEBUG\MATHHELPER.OBJ
C:\USERS\BEREND\DESKTOP\GIT\ADVANCED-GRAPHICS-PROGRAMMING\CHAPTER 11 THE GEOMETRY SHADER\TREEBILLBOARD\DEBUG\WAVES.OBJ
C:\USERS\BEREND\DESKTOP\GIT\ADVANCED-GRAPHICS-PROGRAMMING\CHAPTER 11 THE GEOMETRY SHADER\TREEBILLBOARD\DEBUG\EFFECTS.OBJ
C:\USERS\BEREND\DESKTOP\GIT\ADVANCED-GRAPHICS-PROGRAMMING\CHAPTER 11 THE GEOMETRY SHADER\TREEBILLBOARD\DEBUG\RENDERSTATES.OBJ
C:\USERS\BEREND\DESKTOP\GIT\ADVANCED-GRAPHICS-PROGRAMMING\CHAPTER 11 THE GEOMETRY SHADER\TREEBILLBOARD\DEBUG\TREEBILLBOARDDEMO.OBJ
C:\USERS\BEREND\DESKTOP\GIT\ADVANCED-GRAPHICS-PROGRAMMING\CHAPTER 11 THE GEOMETRY SHADER\TREEBILLBOARD\DEBUG\VERTEX.OBJ
^C:\USERS\BEREND\DESKTOP\GIT\ADVANCED-GRAPHICS-PROGRAMMING\COMMON\D3DAPP.CPP
C:\USERS\BEREND\DESKTOP\GIT\ADVANCED-GRAPHICS-PROGRAMMING\CHAPTER 11 THE GEOMETRY SHADER\TREEBILLBOARD\DEBUG\VC120.PDB
^C:\USERS\BEREND\DESKTOP\GIT\ADVANCED-GRAPHICS-PROGRAMMING\COMMON\D3DUTIL.CPP
C:\USERS\BEREND\DESKTOP\GIT\ADVANCED-GRAPHICS-PROGRAMMING\CHAPTER 11 THE GEOMETRY SHADER\TREEBILLBOARD\DEBUG\VC120.PDB
^C:\USERS\BEREND\DESKTOP\GIT\ADVANCED-GRAPHICS-PROGRAMMING\COMMON\GAMETIMER.CPP
C:\USERS\BEREND\DESKTOP\GIT\ADVANCED-GRAPHICS-PROGRAMMING\CHAPTER 11 THE GEOMETRY SHADER\TREEBILLBOARD\DEBUG\VC120.PDB
^C:\USERS\BEREND\DESKTOP\GIT\ADVANCED-GRAPHICS-PROGRAMMING\COMMON\GEOMETRYGENERATOR.CPP
C:\USERS\BEREND\DESKTOP\GIT\ADVANCED-GRAPHICS-PROGRAMMING\CHAPTER 11 THE GEOMETRY SHADER\TREEBILLBOARD\DEBUG\VC120.PDB
^C:\USERS\BEREND\DESKTOP\GIT\ADVANCED-GRAPHICS-PROGRAMMING\COMMON\LIGHTHELPER.CPP
C:\USERS\BEREND\DESKTOP\GIT\ADVANCED-GRAPHICS-PROGRAMMING\CHAPTER 11 THE GEOMETRY SHADER\TREEBILLBOARD\DEBUG\VC120.PDB
^C:\USERS\BEREND\DESKTOP\GIT\ADVANCED-GRAPHICS-PROGRAMMING\COMMON\MATHHELPER.CPP
C:\USERS\BEREND\DESKTOP\GIT\ADVANCED-GRAPHICS-PROGRAMMING\CHAPTER 11 THE GEOMETRY SHADER\TREEBILLBOARD\DEBUG\VC120.PDB
^C:\USERS\BEREND\DESKTOP\GIT\ADVANCED-GRAPHICS-PROGRAMMING\COMMON\WAVES.CPP
C:\USERS\BEREND\DESKTOP\GIT\ADVANCED-GRAPHICS-PROGRAMMING\CHAPTER 11 THE GEOMETRY SHADER\TREEBILLBOARD\DEBUG\VC120.PDB
^C:\USERS\BEREND\DESKTOP\GIT\ADVANCED-GRAPHICS-PROGRAMMING\CHAPTER 11 THE GEOMETRY SHADER\TREEBILLBOARD\EFFECTS.CPP
C:\USERS\BEREND\DESKTOP\GIT\ADVANCED-GRAPHICS-PROGRAMMING\CHAPTER 11 THE GEOMETRY SHADER\TREEBILLBOARD\DEBUG\VC120.PDB
^C:\USERS\BEREND\DESKTOP\GIT\ADVANCED-GRAPHICS-PROGRAMMING\CHAPTER 11 THE GEOMETRY SHADER\TREEBILLBOARD\RENDERSTATES.CPP
C:\USERS\BEREND\DESKTOP\GIT\ADVANCED-GRAPHICS-PROGRAMMING\CHAPTER 11 THE GEOMETRY SHADER\TREEBILLBOARD\DEBUG\VC120.PDB
^C:\USERS\BEREND\DESKTOP\GIT\ADVANCED-GRAPHICS-PROGRAMMING\CHAPTER 11 THE GEOMETRY SHADER\TREEBILLBOARD\TREEBILLBOARDDEMO.CPP
C:\USERS\BEREND\DESKTOP\GIT\ADVANCED-GRAPHICS-PROGRAMMING\CHAPTER 11 THE GEOMETRY SHADER\TREEBILLBOARD\DEBUG\VC120.PDB
^C:\USERS\BEREND\DESKTOP\GIT\ADVANCED-GRAPHICS-PROGRAMMING\CHAPTER 11 THE GEOMETRY SHADER\TREEBILLBOARD\VERTEX.CPP
C:\USERS\BEREND\DESKTOP\GIT\ADVANCED-GRAPHICS-PROGRAMMING\CHAPTER 11 THE GEOMETRY SHADER\TREEBILLBOARD\DEBUG\VC120.PDB
