^S:\PROJECTS\LUNAW8\CHAPTER 11 THE GEOMETRY SHADER\TREEBILLBOARD\FX\BASIC.FX
S:\PROJECTS\LUNAW8\CHAPTER 11 THE GEOMETRY SHADER\TREEBILLBOARD\FX\BASIC.FXO
^S:\PROJECTS\LUNAW8\CHAPTER 11 THE GEOMETRY SHADER\TREEBILLBOARD\FX\TREESPRITE.FX
S:\PROJECTS\LUNAW8\CHAPTER 11 THE GEOMETRY SHADER\TREEBILLBOARD\FX\TREESPRITE.FXO
^C:\USERS\BEREND\DESKTOP\GIT\ADVANCED-GRAPHICS-PROGRAMMING\CHAPTER 11 THE GEOMETRY SHADER\TREEBILLBOARD\FX\BASIC.FX
C:\USERS\BEREND\DESKTOP\GIT\ADVANCED-GRAPHICS-PROGRAMMING\CHAPTER 11 THE GEOMETRY SHADER\TREEBILLBOARD\FX\BASIC.FXO
^C:\USERS\BEREND\DESKTOP\GIT\ADVANCED-GRAPHICS-PROGRAMMING\CHAPTER 11 THE GEOMETRY SHADER\TREEBILLBOARD\FX\TREESPRITE.FX
C:\USERS\BEREND\DESKTOP\GIT\ADVANCED-GRAPHICS-PROGRAMMING\CHAPTER 11 THE GEOMETRY SHADER\TREEBILLBOARD\FX\TREESPRITE.FXO
