^C:\USERS\BEREND\DESKTOP\GIT\ADVANCED-GRAPHICS-PROGRAMMING\CHAPTER 6 DRAWING IN DIRECT3D\BOX\FX\COLOR.FX
C:\USERS\BEREND\DESKTOP\GIT\ADVANCED-GRAPHICS-PROGRAMMING\CHAPTER 6 DRAWING IN DIRECT3D\BOX\FX\COLOR.FXO
^C:\USERS\BEREND\DESKTOP\GIT\2ND-ADVANCED-GRAPHICS-PROGRAMMING\PROJECT\CHAPTER 6 DRAWING IN DIRECT3D\BOX\FX\COLOR.FX
C:\USERS\BEREND\DESKTOP\GIT\2ND-ADVANCED-GRAPHICS-PROGRAMMING\PROJECT\CHAPTER 6 DRAWING IN DIRECT3D\BOX\FX\COLOR.FXO
