^C:\USERS\BEREND\DESKTOP\GIT\ADVANCED-GRAPHICS-PROGRAMMING\CHAPTER 18 NORMAL AND DISPLACEMENT MAPPING\NORMALDISPLACEMENTMAP\FX\BASIC.FX
fxc /Fc /Od /Zi /T fx_5_0 /Fo "FX\\Basic.fxo" "C:\Users\Berend\Desktop\GIT\advanced-graphics-programming\Chapter 18 Normal and Displacement Mapping\NormalDisplacementMap\FX\Basic.fx"
^C:\USERS\BEREND\DESKTOP\GIT\ADVANCED-GRAPHICS-PROGRAMMING\CHAPTER 18 NORMAL AND DISPLACEMENT MAPPING\NORMALDISPLACEMENTMAP\FX\DISPLACEMENTMAP.FX
fxc /Fc /Od /Zi /T fx_5_0 /Fo "FX\\DisplacementMap.fxo" "C:\Users\Berend\Desktop\GIT\advanced-graphics-programming\Chapter 18 Normal and Displacement Mapping\NormalDisplacementMap\FX\DisplacementMap.fx"
^C:\USERS\BEREND\DESKTOP\GIT\ADVANCED-GRAPHICS-PROGRAMMING\CHAPTER 18 NORMAL AND DISPLACEMENT MAPPING\NORMALDISPLACEMENTMAP\FX\NORMALMAP.FX
fxc /Fc /Od /Zi /T fx_5_0 /Fo "FX\\NormalMap.fxo" "C:\Users\Berend\Desktop\GIT\advanced-graphics-programming\Chapter 18 Normal and Displacement Mapping\NormalDisplacementMap\FX\NormalMap.fx"
^C:\USERS\BEREND\DESKTOP\GIT\ADVANCED-GRAPHICS-PROGRAMMING\CHAPTER 18 NORMAL AND DISPLACEMENT MAPPING\NORMALDISPLACEMENTMAP\FX\SKY.FX
fxc /Fc /Od /Zi /T fx_5_0 /Fo "FX\\Sky.fxo" "C:\Users\Berend\Desktop\GIT\advanced-graphics-programming\Chapter 18 Normal and Displacement Mapping\NormalDisplacementMap\FX\Sky.fx"
