^C:\USERS\BEREND\DESKTOP\GIT\ADVANCED-GRAPHICS-PROGRAMMING\CHAPTER 18 NORMAL AND DISPLACEMENT MAPPING\NORMALDISPLACEMENTMAP\FX\BASIC.FX
^C:\USERS\BEREND\DESKTOP\GIT\ADVANCED-GRAPHICS-PROGRAMMING\CHAPTER 18 NORMAL AND DISPLACEMENT MAPPING\NORMALDISPLACEMENTMAP\FX\DISPLACEMENTMAP.FX
^C:\USERS\BEREND\DESKTOP\GIT\ADVANCED-GRAPHICS-PROGRAMMING\CHAPTER 18 NORMAL AND DISPLACEMENT MAPPING\NORMALDISPLACEMENTMAP\FX\NORMALMAP.FX
^C:\USERS\BEREND\DESKTOP\GIT\ADVANCED-GRAPHICS-PROGRAMMING\CHAPTER 18 NORMAL AND DISPLACEMENT MAPPING\NORMALDISPLACEMENTMAP\FX\SKY.FX
