^S:\PROJECTS\LUNAW8\CHAPTER 10 STENCILING\MIRROR\FX\BASIC.FX
fxc /Fc /Od /Zi /T fx_5_0 /Fo "FX\\Basic.fxo" "S:\Projects\LunaW8\Chapter 10 Stenciling\Mirror\FX\Basic.fx"
^C:\USERS\BEREND\DESKTOP\GIT\ADVANCED-GRAPHICS-PROGRAMMING\CHAPTER 10 STENCILING\MIRROR\FX\BASIC.FX
fxc /Fc /Od /Zi /T fx_5_0 /Fo "FX\\Basic.fxo" "C:\Users\Berend\Desktop\GIT\advanced-graphics-programming\Chapter 10 Stenciling\Mirror\FX\Basic.fx"
