^C:\USERS\BEREND\DESKTOP\GIT\ADVANCED-GRAPHICS-PROGRAMMING\CHAPTER 19 TERRAIN RENDERING\TERRAIN\FX\BASIC.FX
C:\USERS\BEREND\DESKTOP\GIT\ADVANCED-GRAPHICS-PROGRAMMING\CHAPTER 19 TERRAIN RENDERING\TERRAIN\FX\BASIC.FXO
^C:\USERS\BEREND\DESKTOP\GIT\ADVANCED-GRAPHICS-PROGRAMMING\CHAPTER 19 TERRAIN RENDERING\TERRAIN\FX\SKY.FX
C:\USERS\BEREND\DESKTOP\GIT\ADVANCED-GRAPHICS-PROGRAMMING\CHAPTER 19 TERRAIN RENDERING\TERRAIN\FX\SKY.FXO
^C:\USERS\BEREND\DESKTOP\GIT\ADVANCED-GRAPHICS-PROGRAMMING\CHAPTER 19 TERRAIN RENDERING\TERRAIN\FX\TERRAIN.FX
C:\USERS\BEREND\DESKTOP\GIT\ADVANCED-GRAPHICS-PROGRAMMING\CHAPTER 19 TERRAIN RENDERING\TERRAIN\FX\TERRAIN.FXO
