^C:\USERS\BEREND\DESKTOP\GIT\2ND-ADVANCED-GRAPHICS-PROGRAMMING\PROJECT\CHAPTER 7 LIGHTING\LITSKULL\DEBUG\D3DAPP.OBJ|C:\USERS\BEREND\DESKTOP\GIT\2ND-ADVANCED-GRAPHICS-PROGRAMMING\PROJECT\CHAPTER 7 LIGHTING\LITSKULL\DEBUG\D3DUTIL.OBJ|C:\USERS\BEREND\DESKTOP\GIT\2ND-ADVANCED-GRAPHICS-PROGRAMMING\PROJECT\CHAPTER 7 LIGHTING\LITSKULL\DEBUG\EFFECTS.OBJ|C:\USERS\BEREND\DESKTOP\GIT\2ND-ADVANCED-GRAPHICS-PROGRAMMING\PROJECT\CHAPTER 7 LIGHTING\LITSKULL\DEBUG\GAMETIMER.OBJ|C:\USERS\BEREND\DESKTOP\GIT\2ND-ADVANCED-GRAPHICS-PROGRAMMING\PROJECT\CHAPTER 7 LIGHTING\LITSKULL\DEBUG\GEOMETRYGENERATOR.OBJ|C:\USERS\BEREND\DESKTOP\GIT\2ND-ADVANCED-GRAPHICS-PROGRAMMING\PROJECT\CHAPTER 7 LIGHTING\LITSKULL\DEBUG\LIGHTHELPER.OBJ|C:\USERS\BEREND\DESKTOP\GIT\2ND-ADVANCED-GRAPHICS-PROGRAMMING\PROJECT\CHAPTER 7 LIGHTING\LITSKULL\DEBUG\LITSKULLDEMO.OBJ|C:\USERS\BEREND\DESKTOP\GIT\2ND-ADVANCED-GRAPHICS-PROGRAMMING\PROJECT\CHAPTER 7 LIGHTING\LITSKULL\DEBUG\MATHHELPER.OBJ|C:\USERS\BEREND\DESKTOP\GIT\2ND-ADVANCED-GRAPHICS-PROGRAMMING\PROJECT\CHAPTER 7 LIGHTING\LITSKULL\DEBUG\MESH.OBJ|C:\USERS\BEREND\DESKTOP\GIT\2ND-ADVANCED-GRAPHICS-PROGRAMMING\PROJECT\CHAPTER 7 LIGHTING\LITSKULL\DEBUG\MODEL.OBJ|C:\USERS\BEREND\DESKTOP\GIT\2ND-ADVANCED-GRAPHICS-PROGRAMMING\PROJECT\CHAPTER 7 LIGHTING\LITSKULL\DEBUG\MODELMATERIAL.OBJ|C:\USERS\BEREND\DESKTOP\GIT\2ND-ADVANCED-GRAPHICS-PROGRAMMING\PROJECT\CHAPTER 7 LIGHTING\LITSKULL\DEBUG\VERTEX.OBJ|C:\USERS\BEREND\DESKTOP\GIT\2ND-ADVANCED-GRAPHICS-PROGRAMMING\PROJECT\CHAPTER 7 LIGHTING\LITSKULL\DEBUG\WAVES.OBJ
C:\PROGRAM FILES (X86)\WINDOWS KITS\8.1\LIB\WINV6.3\UM\X86\D3D11.LIB
C:\PROGRAM FILES (X86)\MICROSOFT DIRECTX SDK (JUNE 2010)\LIB\X86\D3DX11D.LIB
C:\PROGRAM FILES (X86)\WINDOWS KITS\8.1\LIB\WINV6.3\UM\X86\D3DCOMPILER.LIB
C:\USERS\BEREND\DESKTOP\GIT\2ND-ADVANCED-GRAPHICS-PROGRAMMING\PROJECT\COMMON\EFFECTS11D.LIB
C:\PROGRAM FILES (X86)\MICROSOFT DIRECTX SDK (JUNE 2010)\LIB\X86\DXERR.LIB
C:\PROGRAM FILES (X86)\WINDOWS KITS\8.1\LIB\WINV6.3\UM\X86\DXGI.LIB
C:\PROGRAM FILES (X86)\WINDOWS KITS\8.1\LIB\WINV6.3\UM\X86\DXGUID.LIB
C:\USERS\BEREND\DESKTOP\GIT\2ND-ADVANCED-GRAPHICS-PROGRAMMING\PROJECT\LIB\ASSIMP.LIB
C:\PROGRAM FILES (X86)\WINDOWS KITS\8.1\LIB\WINV6.3\UM\X86\KERNEL32.LIB
C:\PROGRAM FILES (X86)\WINDOWS KITS\8.1\LIB\WINV6.3\UM\X86\USER32.LIB
C:\PROGRAM FILES (X86)\WINDOWS KITS\8.1\LIB\WINV6.3\UM\X86\GDI32.LIB
C:\PROGRAM FILES (X86)\WINDOWS KITS\8.1\LIB\WINV6.3\UM\X86\WINSPOOL.LIB
C:\PROGRAM FILES (X86)\WINDOWS KITS\8.1\LIB\WINV6.3\UM\X86\COMDLG32.LIB
C:\PROGRAM FILES (X86)\WINDOWS KITS\8.1\LIB\WINV6.3\UM\X86\ADVAPI32.LIB
C:\PROGRAM FILES (X86)\WINDOWS KITS\8.1\LIB\WINV6.3\UM\X86\SHELL32.LIB
C:\PROGRAM FILES (X86)\WINDOWS KITS\8.1\LIB\WINV6.3\UM\X86\OLE32.LIB
C:\PROGRAM FILES (X86)\WINDOWS KITS\8.1\LIB\WINV6.3\UM\X86\OLEAUT32.LIB
C:\PROGRAM FILES (X86)\WINDOWS KITS\8.1\LIB\WINV6.3\UM\X86\UUID.LIB
C:\PROGRAM FILES (X86)\WINDOWS KITS\8.1\LIB\WINV6.3\UM\X86\ODBC32.LIB
C:\PROGRAM FILES (X86)\WINDOWS KITS\8.1\LIB\WINV6.3\UM\X86\ODBCCP32.LIB
C:\USERS\BEREND\DESKTOP\GIT\2ND-ADVANCED-GRAPHICS-PROGRAMMING\PROJECT\CHAPTER 7 LIGHTING\LITSKULL\DEBUG\D3DAPP.OBJ
C:\USERS\BEREND\DESKTOP\GIT\2ND-ADVANCED-GRAPHICS-PROGRAMMING\PROJECT\CHAPTER 7 LIGHTING\LITSKULL\DEBUG\D3DUTIL.OBJ
C:\USERS\BEREND\DESKTOP\GIT\2ND-ADVANCED-GRAPHICS-PROGRAMMING\PROJECT\CHAPTER 7 LIGHTING\LITSKULL\DEBUG\GAMETIMER.OBJ
C:\USERS\BEREND\DESKTOP\GIT\2ND-ADVANCED-GRAPHICS-PROGRAMMING\PROJECT\CHAPTER 7 LIGHTING\LITSKULL\DEBUG\GEOMETRYGENERATOR.OBJ
C:\USERS\BEREND\DESKTOP\GIT\2ND-ADVANCED-GRAPHICS-PROGRAMMING\PROJECT\CHAPTER 7 LIGHTING\LITSKULL\DEBUG\LIGHTHELPER.OBJ
C:\USERS\BEREND\DESKTOP\GIT\2ND-ADVANCED-GRAPHICS-PROGRAMMING\PROJECT\CHAPTER 7 LIGHTING\LITSKULL\DEBUG\MATHHELPER.OBJ
C:\USERS\BEREND\DESKTOP\GIT\2ND-ADVANCED-GRAPHICS-PROGRAMMING\PROJECT\CHAPTER 7 LIGHTING\LITSKULL\DEBUG\WAVES.OBJ
C:\USERS\BEREND\DESKTOP\GIT\2ND-ADVANCED-GRAPHICS-PROGRAMMING\PROJECT\CHAPTER 7 LIGHTING\LITSKULL\DEBUG\EFFECTS.OBJ
C:\USERS\BEREND\DESKTOP\GIT\2ND-ADVANCED-GRAPHICS-PROGRAMMING\PROJECT\CHAPTER 7 LIGHTING\LITSKULL\DEBUG\LITSKULLDEMO.OBJ
C:\USERS\BEREND\DESKTOP\GIT\2ND-ADVANCED-GRAPHICS-PROGRAMMING\PROJECT\CHAPTER 7 LIGHTING\LITSKULL\DEBUG\MESH.OBJ
C:\USERS\BEREND\DESKTOP\GIT\2ND-ADVANCED-GRAPHICS-PROGRAMMING\PROJECT\CHAPTER 7 LIGHTING\LITSKULL\DEBUG\MODEL.OBJ
C:\USERS\BEREND\DESKTOP\GIT\2ND-ADVANCED-GRAPHICS-PROGRAMMING\PROJECT\CHAPTER 7 LIGHTING\LITSKULL\DEBUG\MODELMATERIAL.OBJ
C:\USERS\BEREND\DESKTOP\GIT\2ND-ADVANCED-GRAPHICS-PROGRAMMING\PROJECT\CHAPTER 7 LIGHTING\LITSKULL\DEBUG\VERTEX.OBJ
C:\WINDOWS\SYSTEM32\TZRES.DLL
C:\WINDOWS\GLOBALIZATION\SORTING\SORTDEFAULT.NLS
C:\PROGRAM FILES (X86)\MICROSOFT VISUAL STUDIO 12.0\VC\LIB\MSVCPRTD.LIB
C:\PROGRAM FILES (X86)\MICROSOFT VISUAL STUDIO 12.0\VC\LIB\MSVCRTD.LIB
C:\PROGRAM FILES (X86)\MICROSOFT VISUAL STUDIO 12.0\VC\LIB\OLDNAMES.LIB
