^S:\PROJECTS\LUNAW8\CHAPTER 13 THE TESSELLATION STAGES\BASICTESSELLATION\FX\BASIC.FX
fxc /Fc /Od /Zi /T fx_5_0 /Fo "FX\\Basic.fxo" "S:\Projects\LunaW8\Chapter 13 The Tessellation Stages\BasicTessellation\FX\Basic.fx"
^S:\PROJECTS\LUNAW8\CHAPTER 13 THE TESSELLATION STAGES\BASICTESSELLATION\FX\BLUR.FX
fxc /Fc /Od /Zi /T fx_5_0 /Fo "FX\\Blur.fxo" "S:\Projects\LunaW8\Chapter 13 The Tessellation Stages\BasicTessellation\FX\Blur.fx"
^S:\PROJECTS\LUNAW8\CHAPTER 13 THE TESSELLATION STAGES\BASICTESSELLATION\FX\TESSELLATION.FX
fxc /Fc /Od /Zi /T fx_5_0 /Fo "FX\\Tessellation.fxo" "S:\Projects\LunaW8\Chapter 13 The Tessellation Stages\BasicTessellation\FX\Tessellation.fx"
^C:\USERS\BEREND\DESKTOP\GIT\ADVANCED-GRAPHICS-PROGRAMMING\CHAPTER 13 THE TESSELLATION STAGES\BASICTESSELLATION\FX\BASIC.FX
fxc /Fc /Od /Zi /T fx_5_0 /Fo "FX\\Basic.fxo" "C:\Users\Berend\Desktop\GIT\advanced-graphics-programming\Chapter 13 The Tessellation Stages\BasicTessellation\FX\Basic.fx"
^C:\USERS\BEREND\DESKTOP\GIT\ADVANCED-GRAPHICS-PROGRAMMING\CHAPTER 13 THE TESSELLATION STAGES\BASICTESSELLATION\FX\BLUR.FX
fxc /Fc /Od /Zi /T fx_5_0 /Fo "FX\\Blur.fxo" "C:\Users\Berend\Desktop\GIT\advanced-graphics-programming\Chapter 13 The Tessellation Stages\BasicTessellation\FX\Blur.fx"
^C:\USERS\BEREND\DESKTOP\GIT\ADVANCED-GRAPHICS-PROGRAMMING\CHAPTER 13 THE TESSELLATION STAGES\BASICTESSELLATION\FX\TESSELLATION.FX
fxc /Fc /Od /Zi /T fx_5_0 /Fo "FX\\Tessellation.fxo" "C:\Users\Berend\Desktop\GIT\advanced-graphics-programming\Chapter 13 The Tessellation Stages\BasicTessellation\FX\Tessellation.fx"
