^C:\USERS\BEREND\DESKTOP\GIT\ADVANCED-GRAPHICS-PROGRAMMING\CHAPTER 16 PICKING\PICKING\EFFECTS.CPP|C:\USERS\BEREND\DESKTOP\GIT\ADVANCED-GRAPHICS-PROGRAMMING\CHAPTER 16 PICKING\PICKING\PICKINGDEMO.CPP|C:\USERS\BEREND\DESKTOP\GIT\ADVANCED-GRAPHICS-PROGRAMMING\CHAPTER 16 PICKING\PICKING\RENDERSTATES.CPP|C:\USERS\BEREND\DESKTOP\GIT\ADVANCED-GRAPHICS-PROGRAMMING\CHAPTER 16 PICKING\PICKING\VERTEX.CPP|C:\USERS\BEREND\DESKTOP\GIT\ADVANCED-GRAPHICS-PROGRAMMING\COMMON\CAMERA.CPP|C:\USERS\BEREND\DESKTOP\GIT\ADVANCED-GRAPHICS-PROGRAMMING\COMMON\D3DAPP.CPP|C:\USERS\BEREND\DESKTOP\GIT\ADVANCED-GRAPHICS-PROGRAMMING\COMMON\D3DUTIL.CPP|C:\USERS\BEREND\DESKTOP\GIT\ADVANCED-GRAPHICS-PROGRAMMING\COMMON\GAMETIMER.CPP|C:\USERS\BEREND\DESKTOP\GIT\ADVANCED-GRAPHICS-PROGRAMMING\COMMON\GEOMETRYGENERATOR.CPP|C:\USERS\BEREND\DESKTOP\GIT\ADVANCED-GRAPHICS-PROGRAMMING\COMMON\LIGHTHELPER.CPP|C:\USERS\BEREND\DESKTOP\GIT\ADVANCED-GRAPHICS-PROGRAMMING\COMMON\MATHHELPER.CPP|C:\USERS\BEREND\DESKTOP\GIT\ADVANCED-GRAPHICS-PROGRAMMING\COMMON\WAVES.CPP|C:\USERS\BEREND\DESKTOP\GIT\ADVANCED-GRAPHICS-PROGRAMMING\COMMON\XNACOLLISION.CPP
C:\USERS\BEREND\DESKTOP\GIT\ADVANCED-GRAPHICS-PROGRAMMING\CHAPTER 16 PICKING\PICKING\DEBUG\VC120.PDB
C:\USERS\BEREND\DESKTOP\GIT\ADVANCED-GRAPHICS-PROGRAMMING\CHAPTER 16 PICKING\PICKING\DEBUG\VC120.IDB
C:\USERS\BEREND\DESKTOP\GIT\ADVANCED-GRAPHICS-PROGRAMMING\CHAPTER 16 PICKING\PICKING\DEBUG\CAMERA.OBJ
C:\USERS\BEREND\DESKTOP\GIT\ADVANCED-GRAPHICS-PROGRAMMING\CHAPTER 16 PICKING\PICKING\DEBUG\D3DAPP.OBJ
C:\USERS\BEREND\DESKTOP\GIT\ADVANCED-GRAPHICS-PROGRAMMING\CHAPTER 16 PICKING\PICKING\DEBUG\D3DUTIL.OBJ
C:\USERS\BEREND\DESKTOP\GIT\ADVANCED-GRAPHICS-PROGRAMMING\CHAPTER 16 PICKING\PICKING\DEBUG\GAMETIMER.OBJ
C:\USERS\BEREND\DESKTOP\GIT\ADVANCED-GRAPHICS-PROGRAMMING\CHAPTER 16 PICKING\PICKING\DEBUG\GEOMETRYGENERATOR.OBJ
C:\USERS\BEREND\DESKTOP\GIT\ADVANCED-GRAPHICS-PROGRAMMING\CHAPTER 16 PICKING\PICKING\DEBUG\LIGHTHELPER.OBJ
C:\USERS\BEREND\DESKTOP\GIT\ADVANCED-GRAPHICS-PROGRAMMING\CHAPTER 16 PICKING\PICKING\DEBUG\MATHHELPER.OBJ
C:\USERS\BEREND\DESKTOP\GIT\ADVANCED-GRAPHICS-PROGRAMMING\CHAPTER 16 PICKING\PICKING\DEBUG\WAVES.OBJ
C:\USERS\BEREND\DESKTOP\GIT\ADVANCED-GRAPHICS-PROGRAMMING\CHAPTER 16 PICKING\PICKING\DEBUG\XNACOLLISION.OBJ
C:\USERS\BEREND\DESKTOP\GIT\ADVANCED-GRAPHICS-PROGRAMMING\CHAPTER 16 PICKING\PICKING\DEBUG\EFFECTS.OBJ
C:\USERS\BEREND\DESKTOP\GIT\ADVANCED-GRAPHICS-PROGRAMMING\CHAPTER 16 PICKING\PICKING\DEBUG\PICKINGDEMO.OBJ
C:\USERS\BEREND\DESKTOP\GIT\ADVANCED-GRAPHICS-PROGRAMMING\CHAPTER 16 PICKING\PICKING\DEBUG\RENDERSTATES.OBJ
C:\USERS\BEREND\DESKTOP\GIT\ADVANCED-GRAPHICS-PROGRAMMING\CHAPTER 16 PICKING\PICKING\DEBUG\VERTEX.OBJ
^C:\USERS\BEREND\DESKTOP\GIT\ADVANCED-GRAPHICS-PROGRAMMING\COMMON\CAMERA.CPP
C:\USERS\BEREND\DESKTOP\GIT\ADVANCED-GRAPHICS-PROGRAMMING\CHAPTER 16 PICKING\PICKING\DEBUG\VC120.PDB
^C:\USERS\BEREND\DESKTOP\GIT\ADVANCED-GRAPHICS-PROGRAMMING\COMMON\D3DAPP.CPP
C:\USERS\BEREND\DESKTOP\GIT\ADVANCED-GRAPHICS-PROGRAMMING\CHAPTER 16 PICKING\PICKING\DEBUG\VC120.PDB
^C:\USERS\BEREND\DESKTOP\GIT\ADVANCED-GRAPHICS-PROGRAMMING\COMMON\D3DUTIL.CPP
C:\USERS\BEREND\DESKTOP\GIT\ADVANCED-GRAPHICS-PROGRAMMING\CHAPTER 16 PICKING\PICKING\DEBUG\VC120.PDB
^C:\USERS\BEREND\DESKTOP\GIT\ADVANCED-GRAPHICS-PROGRAMMING\COMMON\GAMETIMER.CPP
C:\USERS\BEREND\DESKTOP\GIT\ADVANCED-GRAPHICS-PROGRAMMING\CHAPTER 16 PICKING\PICKING\DEBUG\VC120.PDB
^C:\USERS\BEREND\DESKTOP\GIT\ADVANCED-GRAPHICS-PROGRAMMING\COMMON\GEOMETRYGENERATOR.CPP
C:\USERS\BEREND\DESKTOP\GIT\ADVANCED-GRAPHICS-PROGRAMMING\CHAPTER 16 PICKING\PICKING\DEBUG\VC120.PDB
^C:\USERS\BEREND\DESKTOP\GIT\ADVANCED-GRAPHICS-PROGRAMMING\COMMON\LIGHTHELPER.CPP
C:\USERS\BEREND\DESKTOP\GIT\ADVANCED-GRAPHICS-PROGRAMMING\CHAPTER 16 PICKING\PICKING\DEBUG\VC120.PDB
^C:\USERS\BEREND\DESKTOP\GIT\ADVANCED-GRAPHICS-PROGRAMMING\COMMON\MATHHELPER.CPP
C:\USERS\BEREND\DESKTOP\GIT\ADVANCED-GRAPHICS-PROGRAMMING\CHAPTER 16 PICKING\PICKING\DEBUG\VC120.PDB
^C:\USERS\BEREND\DESKTOP\GIT\ADVANCED-GRAPHICS-PROGRAMMING\COMMON\WAVES.CPP
C:\USERS\BEREND\DESKTOP\GIT\ADVANCED-GRAPHICS-PROGRAMMING\CHAPTER 16 PICKING\PICKING\DEBUG\VC120.PDB
^C:\USERS\BEREND\DESKTOP\GIT\ADVANCED-GRAPHICS-PROGRAMMING\COMMON\XNACOLLISION.CPP
C:\USERS\BEREND\DESKTOP\GIT\ADVANCED-GRAPHICS-PROGRAMMING\CHAPTER 16 PICKING\PICKING\DEBUG\VC120.PDB
^C:\USERS\BEREND\DESKTOP\GIT\ADVANCED-GRAPHICS-PROGRAMMING\CHAPTER 16 PICKING\PICKING\EFFECTS.CPP
C:\USERS\BEREND\DESKTOP\GIT\ADVANCED-GRAPHICS-PROGRAMMING\CHAPTER 16 PICKING\PICKING\DEBUG\VC120.PDB
^C:\USERS\BEREND\DESKTOP\GIT\ADVANCED-GRAPHICS-PROGRAMMING\CHAPTER 16 PICKING\PICKING\PICKINGDEMO.CPP
C:\USERS\BEREND\DESKTOP\GIT\ADVANCED-GRAPHICS-PROGRAMMING\CHAPTER 16 PICKING\PICKING\DEBUG\VC120.PDB
^C:\USERS\BEREND\DESKTOP\GIT\ADVANCED-GRAPHICS-PROGRAMMING\CHAPTER 16 PICKING\PICKING\RENDERSTATES.CPP
C:\USERS\BEREND\DESKTOP\GIT\ADVANCED-GRAPHICS-PROGRAMMING\CHAPTER 16 PICKING\PICKING\DEBUG\VC120.PDB
^C:\USERS\BEREND\DESKTOP\GIT\ADVANCED-GRAPHICS-PROGRAMMING\CHAPTER 16 PICKING\PICKING\VERTEX.CPP
C:\USERS\BEREND\DESKTOP\GIT\ADVANCED-GRAPHICS-PROGRAMMING\CHAPTER 16 PICKING\PICKING\DEBUG\VC120.PDB
