^C:\USERS\BEREND\DESKTOP\GIT\ADVANCED-GRAPHICS-PROGRAMMING\CHAPTER 21 SHADOW MAPPING\SHADOWS\EFFECTS.CPP|C:\USERS\BEREND\DESKTOP\GIT\ADVANCED-GRAPHICS-PROGRAMMING\CHAPTER 21 SHADOW MAPPING\SHADOWS\RENDERSTATES.CPP|C:\USERS\BEREND\DESKTOP\GIT\ADVANCED-GRAPHICS-PROGRAMMING\CHAPTER 21 SHADOW MAPPING\SHADOWS\SHADOWMAP.CPP|C:\USERS\BEREND\DESKTOP\GIT\ADVANCED-GRAPHICS-PROGRAMMING\CHAPTER 21 SHADOW MAPPING\SHADOWS\SHADOWSDEMO.CPP|C:\USERS\BEREND\DESKTOP\GIT\ADVANCED-GRAPHICS-PROGRAMMING\CHAPTER 21 SHADOW MAPPING\SHADOWS\SKY.CPP|C:\USERS\BEREND\DESKTOP\GIT\ADVANCED-GRAPHICS-PROGRAMMING\CHAPTER 21 SHADOW MAPPING\SHADOWS\VERTEX.CPP|C:\USERS\BEREND\DESKTOP\GIT\ADVANCED-GRAPHICS-PROGRAMMING\COMMON\CAMERA.CPP|C:\USERS\BEREND\DESKTOP\GIT\ADVANCED-GRAPHICS-PROGRAMMING\COMMON\D3DAPP.CPP|C:\USERS\BEREND\DESKTOP\GIT\ADVANCED-GRAPHICS-PROGRAMMING\COMMON\D3DUTIL.CPP|C:\USERS\BEREND\DESKTOP\GIT\ADVANCED-GRAPHICS-PROGRAMMING\COMMON\GAMETIMER.CPP|C:\USERS\BEREND\DESKTOP\GIT\ADVANCED-GRAPHICS-PROGRAMMING\COMMON\GEOMETRYGENERATOR.CPP|C:\USERS\BEREND\DESKTOP\GIT\ADVANCED-GRAPHICS-PROGRAMMING\COMMON\LIGHTHELPER.CPP|C:\USERS\BEREND\DESKTOP\GIT\ADVANCED-GRAPHICS-PROGRAMMING\COMMON\MATHHELPER.CPP|C:\USERS\BEREND\DESKTOP\GIT\ADVANCED-GRAPHICS-PROGRAMMING\COMMON\WAVES.CPP
C:\USERS\BEREND\DESKTOP\GIT\ADVANCED-GRAPHICS-PROGRAMMING\CHAPTER 21 SHADOW MAPPING\SHADOWS\DEBUG\VC120.PDB
C:\USERS\BEREND\DESKTOP\GIT\ADVANCED-GRAPHICS-PROGRAMMING\CHAPTER 21 SHADOW MAPPING\SHADOWS\DEBUG\VC120.IDB
C:\USERS\BEREND\DESKTOP\GIT\ADVANCED-GRAPHICS-PROGRAMMING\CHAPTER 21 SHADOW MAPPING\SHADOWS\DEBUG\CAMERA.OBJ
C:\USERS\BEREND\DESKTOP\GIT\ADVANCED-GRAPHICS-PROGRAMMING\CHAPTER 21 SHADOW MAPPING\SHADOWS\DEBUG\D3DAPP.OBJ
C:\USERS\BEREND\DESKTOP\GIT\ADVANCED-GRAPHICS-PROGRAMMING\CHAPTER 21 SHADOW MAPPING\SHADOWS\DEBUG\D3DUTIL.OBJ
C:\USERS\BEREND\DESKTOP\GIT\ADVANCED-GRAPHICS-PROGRAMMING\CHAPTER 21 SHADOW MAPPING\SHADOWS\DEBUG\GAMETIMER.OBJ
C:\USERS\BEREND\DESKTOP\GIT\ADVANCED-GRAPHICS-PROGRAMMING\CHAPTER 21 SHADOW MAPPING\SHADOWS\DEBUG\GEOMETRYGENERATOR.OBJ
C:\USERS\BEREND\DESKTOP\GIT\ADVANCED-GRAPHICS-PROGRAMMING\CHAPTER 21 SHADOW MAPPING\SHADOWS\DEBUG\LIGHTHELPER.OBJ
C:\USERS\BEREND\DESKTOP\GIT\ADVANCED-GRAPHICS-PROGRAMMING\CHAPTER 21 SHADOW MAPPING\SHADOWS\DEBUG\MATHHELPER.OBJ
C:\USERS\BEREND\DESKTOP\GIT\ADVANCED-GRAPHICS-PROGRAMMING\CHAPTER 21 SHADOW MAPPING\SHADOWS\DEBUG\WAVES.OBJ
C:\USERS\BEREND\DESKTOP\GIT\ADVANCED-GRAPHICS-PROGRAMMING\CHAPTER 21 SHADOW MAPPING\SHADOWS\DEBUG\EFFECTS.OBJ
C:\USERS\BEREND\DESKTOP\GIT\ADVANCED-GRAPHICS-PROGRAMMING\CHAPTER 21 SHADOW MAPPING\SHADOWS\DEBUG\RENDERSTATES.OBJ
C:\USERS\BEREND\DESKTOP\GIT\ADVANCED-GRAPHICS-PROGRAMMING\CHAPTER 21 SHADOW MAPPING\SHADOWS\DEBUG\SHADOWMAP.OBJ
C:\USERS\BEREND\DESKTOP\GIT\ADVANCED-GRAPHICS-PROGRAMMING\CHAPTER 21 SHADOW MAPPING\SHADOWS\DEBUG\SHADOWSDEMO.OBJ
C:\USERS\BEREND\DESKTOP\GIT\ADVANCED-GRAPHICS-PROGRAMMING\CHAPTER 21 SHADOW MAPPING\SHADOWS\DEBUG\SKY.OBJ
C:\USERS\BEREND\DESKTOP\GIT\ADVANCED-GRAPHICS-PROGRAMMING\CHAPTER 21 SHADOW MAPPING\SHADOWS\DEBUG\VERTEX.OBJ
^C:\USERS\BEREND\DESKTOP\GIT\ADVANCED-GRAPHICS-PROGRAMMING\COMMON\CAMERA.CPP
C:\USERS\BEREND\DESKTOP\GIT\ADVANCED-GRAPHICS-PROGRAMMING\CHAPTER 21 SHADOW MAPPING\SHADOWS\DEBUG\VC120.PDB
^C:\USERS\BEREND\DESKTOP\GIT\ADVANCED-GRAPHICS-PROGRAMMING\COMMON\D3DAPP.CPP
C:\USERS\BEREND\DESKTOP\GIT\ADVANCED-GRAPHICS-PROGRAMMING\CHAPTER 21 SHADOW MAPPING\SHADOWS\DEBUG\VC120.PDB
^C:\USERS\BEREND\DESKTOP\GIT\ADVANCED-GRAPHICS-PROGRAMMING\COMMON\D3DUTIL.CPP
C:\USERS\BEREND\DESKTOP\GIT\ADVANCED-GRAPHICS-PROGRAMMING\CHAPTER 21 SHADOW MAPPING\SHADOWS\DEBUG\VC120.PDB
^C:\USERS\BEREND\DESKTOP\GIT\ADVANCED-GRAPHICS-PROGRAMMING\COMMON\GAMETIMER.CPP
C:\USERS\BEREND\DESKTOP\GIT\ADVANCED-GRAPHICS-PROGRAMMING\CHAPTER 21 SHADOW MAPPING\SHADOWS\DEBUG\VC120.PDB
^C:\USERS\BEREND\DESKTOP\GIT\ADVANCED-GRAPHICS-PROGRAMMING\COMMON\GEOMETRYGENERATOR.CPP
C:\USERS\BEREND\DESKTOP\GIT\ADVANCED-GRAPHICS-PROGRAMMING\CHAPTER 21 SHADOW MAPPING\SHADOWS\DEBUG\VC120.PDB
C:\USERS\BEREND\DESKTOP\GIT\ADVANCED-GRAPHICS-PROGRAMMING\CHAPTER 21 SHADOW MAPPING\SHADOWS\DEBUG\VC120.IDB
C:\USERS\BEREND\DESKTOP\GIT\ADVANCED-GRAPHICS-PROGRAMMING\CHAPTER 21 SHADOW MAPPING\SHADOWS\DEBUG\GEOMETRYGENERATOR.OBJ
^C:\USERS\BEREND\DESKTOP\GIT\ADVANCED-GRAPHICS-PROGRAMMING\COMMON\LIGHTHELPER.CPP
C:\USERS\BEREND\DESKTOP\GIT\ADVANCED-GRAPHICS-PROGRAMMING\CHAPTER 21 SHADOW MAPPING\SHADOWS\DEBUG\VC120.PDB
^C:\USERS\BEREND\DESKTOP\GIT\ADVANCED-GRAPHICS-PROGRAMMING\COMMON\MATHHELPER.CPP
C:\USERS\BEREND\DESKTOP\GIT\ADVANCED-GRAPHICS-PROGRAMMING\CHAPTER 21 SHADOW MAPPING\SHADOWS\DEBUG\VC120.PDB
^C:\USERS\BEREND\DESKTOP\GIT\ADVANCED-GRAPHICS-PROGRAMMING\COMMON\WAVES.CPP
C:\USERS\BEREND\DESKTOP\GIT\ADVANCED-GRAPHICS-PROGRAMMING\CHAPTER 21 SHADOW MAPPING\SHADOWS\DEBUG\VC120.PDB
^C:\USERS\BEREND\DESKTOP\GIT\ADVANCED-GRAPHICS-PROGRAMMING\CHAPTER 21 SHADOW MAPPING\SHADOWS\EFFECTS.CPP
C:\USERS\BEREND\DESKTOP\GIT\ADVANCED-GRAPHICS-PROGRAMMING\CHAPTER 21 SHADOW MAPPING\SHADOWS\DEBUG\VC120.PDB
^C:\USERS\BEREND\DESKTOP\GIT\ADVANCED-GRAPHICS-PROGRAMMING\CHAPTER 21 SHADOW MAPPING\SHADOWS\RENDERSTATES.CPP
C:\USERS\BEREND\DESKTOP\GIT\ADVANCED-GRAPHICS-PROGRAMMING\CHAPTER 21 SHADOW MAPPING\SHADOWS\DEBUG\VC120.PDB
^C:\USERS\BEREND\DESKTOP\GIT\ADVANCED-GRAPHICS-PROGRAMMING\CHAPTER 21 SHADOW MAPPING\SHADOWS\SHADOWMAP.CPP
C:\USERS\BEREND\DESKTOP\GIT\ADVANCED-GRAPHICS-PROGRAMMING\CHAPTER 21 SHADOW MAPPING\SHADOWS\DEBUG\VC120.PDB
^C:\USERS\BEREND\DESKTOP\GIT\ADVANCED-GRAPHICS-PROGRAMMING\CHAPTER 21 SHADOW MAPPING\SHADOWS\SHADOWSDEMO.CPP
C:\USERS\BEREND\DESKTOP\GIT\ADVANCED-GRAPHICS-PROGRAMMING\CHAPTER 21 SHADOW MAPPING\SHADOWS\DEBUG\VC120.PDB
^C:\USERS\BEREND\DESKTOP\GIT\ADVANCED-GRAPHICS-PROGRAMMING\CHAPTER 21 SHADOW MAPPING\SHADOWS\SKY.CPP
C:\USERS\BEREND\DESKTOP\GIT\ADVANCED-GRAPHICS-PROGRAMMING\CHAPTER 21 SHADOW MAPPING\SHADOWS\DEBUG\VC120.PDB
^C:\USERS\BEREND\DESKTOP\GIT\ADVANCED-GRAPHICS-PROGRAMMING\CHAPTER 21 SHADOW MAPPING\SHADOWS\VERTEX.CPP
C:\USERS\BEREND\DESKTOP\GIT\ADVANCED-GRAPHICS-PROGRAMMING\CHAPTER 21 SHADOW MAPPING\SHADOWS\DEBUG\VC120.PDB
