^S:\PROJECTS\LUNAW8\CHAPTER 6 DRAWING IN DIRECT3D\SKULL\FX\COLOR.FX
fxc /Fc /Od /Zi /T fx_5_0 /Fo "FX\\color.fxo" "S:\Projects\LunaW8\Chapter 6 Drawing in Direct3D\Skull\FX\color.fx"
^C:\USERS\BEREND\DESKTOP\GIT\ADVANCED-GRAPHICS-PROGRAMMING\CHAPTER 6 DRAWING IN DIRECT3D\SKULL\FX\COLOR.FX
fxc /Fc /Od /Zi /T fx_5_0 /Fo "FX\\color.fxo" "C:\Users\Berend\Desktop\GIT\advanced-graphics-programming\Chapter 6 Drawing in Direct3D\Skull\FX\color.fx"
