^C:\USERS\BEREND\DESKTOP\GIT\2ND-ADVANCED-GRAPHICS-PROGRAMMING\COMMON\CAMERA.CPP
C:\USERS\BEREND\DESKTOP\GIT\2ND-ADVANCED-GRAPHICS-PROGRAMMING\CHAPTER 17 CUBE MAPPING\CUBEMAP\DEBUG\VC120.PDB
^C:\USERS\BEREND\DESKTOP\GIT\2ND-ADVANCED-GRAPHICS-PROGRAMMING\COMMON\D3DAPP.CPP
C:\USERS\BEREND\DESKTOP\GIT\2ND-ADVANCED-GRAPHICS-PROGRAMMING\CHAPTER 17 CUBE MAPPING\CUBEMAP\DEBUG\VC120.PDB
^C:\USERS\BEREND\DESKTOP\GIT\2ND-ADVANCED-GRAPHICS-PROGRAMMING\COMMON\D3DUTIL.CPP
C:\USERS\BEREND\DESKTOP\GIT\2ND-ADVANCED-GRAPHICS-PROGRAMMING\CHAPTER 17 CUBE MAPPING\CUBEMAP\DEBUG\VC120.PDB
^C:\USERS\BEREND\DESKTOP\GIT\2ND-ADVANCED-GRAPHICS-PROGRAMMING\COMMON\GAMETIMER.CPP
C:\USERS\BEREND\DESKTOP\GIT\2ND-ADVANCED-GRAPHICS-PROGRAMMING\CHAPTER 17 CUBE MAPPING\CUBEMAP\DEBUG\VC120.PDB
^C:\USERS\BEREND\DESKTOP\GIT\2ND-ADVANCED-GRAPHICS-PROGRAMMING\COMMON\GEOMETRYGENERATOR.CPP
C:\USERS\BEREND\DESKTOP\GIT\2ND-ADVANCED-GRAPHICS-PROGRAMMING\CHAPTER 17 CUBE MAPPING\CUBEMAP\DEBUG\VC120.PDB
^C:\USERS\BEREND\DESKTOP\GIT\2ND-ADVANCED-GRAPHICS-PROGRAMMING\COMMON\LIGHTHELPER.CPP
C:\USERS\BEREND\DESKTOP\GIT\2ND-ADVANCED-GRAPHICS-PROGRAMMING\CHAPTER 17 CUBE MAPPING\CUBEMAP\DEBUG\VC120.PDB
^C:\USERS\BEREND\DESKTOP\GIT\2ND-ADVANCED-GRAPHICS-PROGRAMMING\COMMON\MATHHELPER.CPP
C:\USERS\BEREND\DESKTOP\GIT\2ND-ADVANCED-GRAPHICS-PROGRAMMING\CHAPTER 17 CUBE MAPPING\CUBEMAP\DEBUG\VC120.PDB
^C:\USERS\BEREND\DESKTOP\GIT\2ND-ADVANCED-GRAPHICS-PROGRAMMING\COMMON\WAVES.CPP
C:\USERS\BEREND\DESKTOP\GIT\2ND-ADVANCED-GRAPHICS-PROGRAMMING\CHAPTER 17 CUBE MAPPING\CUBEMAP\DEBUG\VC120.PDB
^C:\USERS\BEREND\DESKTOP\GIT\2ND-ADVANCED-GRAPHICS-PROGRAMMING\CHAPTER 17 CUBE MAPPING\CUBEMAP\CUBEMAPDEMO.CPP
C:\USERS\BEREND\DESKTOP\GIT\2ND-ADVANCED-GRAPHICS-PROGRAMMING\CHAPTER 17 CUBE MAPPING\CUBEMAP\DEBUG\VC120.PDB
^C:\USERS\BEREND\DESKTOP\GIT\2ND-ADVANCED-GRAPHICS-PROGRAMMING\CHAPTER 17 CUBE MAPPING\CUBEMAP\EFFECTS.CPP
C:\USERS\BEREND\DESKTOP\GIT\2ND-ADVANCED-GRAPHICS-PROGRAMMING\CHAPTER 17 CUBE MAPPING\CUBEMAP\DEBUG\VC120.PDB
^C:\USERS\BEREND\DESKTOP\GIT\2ND-ADVANCED-GRAPHICS-PROGRAMMING\CHAPTER 17 CUBE MAPPING\CUBEMAP\RENDERSTATES.CPP
C:\USERS\BEREND\DESKTOP\GIT\2ND-ADVANCED-GRAPHICS-PROGRAMMING\CHAPTER 17 CUBE MAPPING\CUBEMAP\DEBUG\VC120.PDB
^C:\USERS\BEREND\DESKTOP\GIT\2ND-ADVANCED-GRAPHICS-PROGRAMMING\CHAPTER 17 CUBE MAPPING\CUBEMAP\SKY.CPP
C:\USERS\BEREND\DESKTOP\GIT\2ND-ADVANCED-GRAPHICS-PROGRAMMING\CHAPTER 17 CUBE MAPPING\CUBEMAP\DEBUG\VC120.PDB
^C:\USERS\BEREND\DESKTOP\GIT\2ND-ADVANCED-GRAPHICS-PROGRAMMING\CHAPTER 17 CUBE MAPPING\CUBEMAP\VERTEX.CPP
C:\USERS\BEREND\DESKTOP\GIT\2ND-ADVANCED-GRAPHICS-PROGRAMMING\CHAPTER 17 CUBE MAPPING\CUBEMAP\DEBUG\VC120.PDB
^C:\USERS\BEREND\DESKTOP\GIT\2ND-ADVANCED-GRAPHICS-PROGRAMMING\PROJECT\CHAPTER 17 CUBE MAPPING\CUBEMAP\CUBEMAPDEMO.CPP|C:\USERS\BEREND\DESKTOP\GIT\2ND-ADVANCED-GRAPHICS-PROGRAMMING\PROJECT\CHAPTER 17 CUBE MAPPING\CUBEMAP\EFFECTS.CPP|C:\USERS\BEREND\DESKTOP\GIT\2ND-ADVANCED-GRAPHICS-PROGRAMMING\PROJECT\CHAPTER 17 CUBE MAPPING\CUBEMAP\RENDERSTATES.CPP|C:\USERS\BEREND\DESKTOP\GIT\2ND-ADVANCED-GRAPHICS-PROGRAMMING\PROJECT\CHAPTER 17 CUBE MAPPING\CUBEMAP\SKY.CPP|C:\USERS\BEREND\DESKTOP\GIT\2ND-ADVANCED-GRAPHICS-PROGRAMMING\PROJECT\CHAPTER 17 CUBE MAPPING\CUBEMAP\VERTEX.CPP|C:\USERS\BEREND\DESKTOP\GIT\2ND-ADVANCED-GRAPHICS-PROGRAMMING\PROJECT\COMMON\CAMERA.CPP|C:\USERS\BEREND\DESKTOP\GIT\2ND-ADVANCED-GRAPHICS-PROGRAMMING\PROJECT\COMMON\D3DAPP.CPP|C:\USERS\BEREND\DESKTOP\GIT\2ND-ADVANCED-GRAPHICS-PROGRAMMING\PROJECT\COMMON\D3DUTIL.CPP|C:\USERS\BEREND\DESKTOP\GIT\2ND-ADVANCED-GRAPHICS-PROGRAMMING\PROJECT\COMMON\GAMETIMER.CPP|C:\USERS\BEREND\DESKTOP\GIT\2ND-ADVANCED-GRAPHICS-PROGRAMMING\PROJECT\COMMON\GEOMETRYGENERATOR.CPP|C:\USERS\BEREND\DESKTOP\GIT\2ND-ADVANCED-GRAPHICS-PROGRAMMING\PROJECT\COMMON\LIGHTHELPER.CPP|C:\USERS\BEREND\DESKTOP\GIT\2ND-ADVANCED-GRAPHICS-PROGRAMMING\PROJECT\COMMON\MATHHELPER.CPP|C:\USERS\BEREND\DESKTOP\GIT\2ND-ADVANCED-GRAPHICS-PROGRAMMING\PROJECT\COMMON\WAVES.CPP
C:\USERS\BEREND\DESKTOP\GIT\2ND-ADVANCED-GRAPHICS-PROGRAMMING\PROJECT\CHAPTER 17 CUBE MAPPING\CUBEMAP\DEBUG\VC120.PDB
C:\USERS\BEREND\DESKTOP\GIT\2ND-ADVANCED-GRAPHICS-PROGRAMMING\PROJECT\CHAPTER 17 CUBE MAPPING\CUBEMAP\DEBUG\VC120.IDB
C:\USERS\BEREND\DESKTOP\GIT\2ND-ADVANCED-GRAPHICS-PROGRAMMING\PROJECT\CHAPTER 17 CUBE MAPPING\CUBEMAP\DEBUG\CAMERA.OBJ
C:\USERS\BEREND\DESKTOP\GIT\2ND-ADVANCED-GRAPHICS-PROGRAMMING\PROJECT\CHAPTER 17 CUBE MAPPING\CUBEMAP\DEBUG\D3DAPP.OBJ
C:\USERS\BEREND\DESKTOP\GIT\2ND-ADVANCED-GRAPHICS-PROGRAMMING\PROJECT\CHAPTER 17 CUBE MAPPING\CUBEMAP\DEBUG\D3DUTIL.OBJ
C:\USERS\BEREND\DESKTOP\GIT\2ND-ADVANCED-GRAPHICS-PROGRAMMING\PROJECT\CHAPTER 17 CUBE MAPPING\CUBEMAP\DEBUG\GAMETIMER.OBJ
C:\USERS\BEREND\DESKTOP\GIT\2ND-ADVANCED-GRAPHICS-PROGRAMMING\PROJECT\CHAPTER 17 CUBE MAPPING\CUBEMAP\DEBUG\GEOMETRYGENERATOR.OBJ
C:\USERS\BEREND\DESKTOP\GIT\2ND-ADVANCED-GRAPHICS-PROGRAMMING\PROJECT\CHAPTER 17 CUBE MAPPING\CUBEMAP\DEBUG\LIGHTHELPER.OBJ
C:\USERS\BEREND\DESKTOP\GIT\2ND-ADVANCED-GRAPHICS-PROGRAMMING\PROJECT\CHAPTER 17 CUBE MAPPING\CUBEMAP\DEBUG\MATHHELPER.OBJ
C:\USERS\BEREND\DESKTOP\GIT\2ND-ADVANCED-GRAPHICS-PROGRAMMING\PROJECT\CHAPTER 17 CUBE MAPPING\CUBEMAP\DEBUG\WAVES.OBJ
C:\USERS\BEREND\DESKTOP\GIT\2ND-ADVANCED-GRAPHICS-PROGRAMMING\PROJECT\CHAPTER 17 CUBE MAPPING\CUBEMAP\DEBUG\CUBEMAPDEMO.OBJ
C:\USERS\BEREND\DESKTOP\GIT\2ND-ADVANCED-GRAPHICS-PROGRAMMING\PROJECT\CHAPTER 17 CUBE MAPPING\CUBEMAP\DEBUG\EFFECTS.OBJ
C:\USERS\BEREND\DESKTOP\GIT\2ND-ADVANCED-GRAPHICS-PROGRAMMING\PROJECT\CHAPTER 17 CUBE MAPPING\CUBEMAP\DEBUG\RENDERSTATES.OBJ
C:\USERS\BEREND\DESKTOP\GIT\2ND-ADVANCED-GRAPHICS-PROGRAMMING\PROJECT\CHAPTER 17 CUBE MAPPING\CUBEMAP\DEBUG\SKY.OBJ
C:\USERS\BEREND\DESKTOP\GIT\2ND-ADVANCED-GRAPHICS-PROGRAMMING\PROJECT\CHAPTER 17 CUBE MAPPING\CUBEMAP\DEBUG\VERTEX.OBJ
^C:\USERS\BEREND\DESKTOP\GIT\2ND-ADVANCED-GRAPHICS-PROGRAMMING\PROJECT\COMMON\CAMERA.CPP
C:\USERS\BEREND\DESKTOP\GIT\2ND-ADVANCED-GRAPHICS-PROGRAMMING\PROJECT\CHAPTER 17 CUBE MAPPING\CUBEMAP\DEBUG\VC120.PDB
^C:\USERS\BEREND\DESKTOP\GIT\2ND-ADVANCED-GRAPHICS-PROGRAMMING\PROJECT\COMMON\D3DAPP.CPP
C:\USERS\BEREND\DESKTOP\GIT\2ND-ADVANCED-GRAPHICS-PROGRAMMING\PROJECT\CHAPTER 17 CUBE MAPPING\CUBEMAP\DEBUG\VC120.PDB
^C:\USERS\BEREND\DESKTOP\GIT\2ND-ADVANCED-GRAPHICS-PROGRAMMING\PROJECT\COMMON\D3DUTIL.CPP
C:\USERS\BEREND\DESKTOP\GIT\2ND-ADVANCED-GRAPHICS-PROGRAMMING\PROJECT\CHAPTER 17 CUBE MAPPING\CUBEMAP\DEBUG\VC120.PDB
^C:\USERS\BEREND\DESKTOP\GIT\2ND-ADVANCED-GRAPHICS-PROGRAMMING\PROJECT\COMMON\GAMETIMER.CPP
C:\USERS\BEREND\DESKTOP\GIT\2ND-ADVANCED-GRAPHICS-PROGRAMMING\PROJECT\CHAPTER 17 CUBE MAPPING\CUBEMAP\DEBUG\VC120.PDB
^C:\USERS\BEREND\DESKTOP\GIT\2ND-ADVANCED-GRAPHICS-PROGRAMMING\PROJECT\COMMON\GEOMETRYGENERATOR.CPP
C:\USERS\BEREND\DESKTOP\GIT\2ND-ADVANCED-GRAPHICS-PROGRAMMING\PROJECT\CHAPTER 17 CUBE MAPPING\CUBEMAP\DEBUG\VC120.PDB
^C:\USERS\BEREND\DESKTOP\GIT\2ND-ADVANCED-GRAPHICS-PROGRAMMING\PROJECT\COMMON\LIGHTHELPER.CPP
C:\USERS\BEREND\DESKTOP\GIT\2ND-ADVANCED-GRAPHICS-PROGRAMMING\PROJECT\CHAPTER 17 CUBE MAPPING\CUBEMAP\DEBUG\VC120.PDB
^C:\USERS\BEREND\DESKTOP\GIT\2ND-ADVANCED-GRAPHICS-PROGRAMMING\PROJECT\COMMON\MATHHELPER.CPP
C:\USERS\BEREND\DESKTOP\GIT\2ND-ADVANCED-GRAPHICS-PROGRAMMING\PROJECT\CHAPTER 17 CUBE MAPPING\CUBEMAP\DEBUG\VC120.PDB
^C:\USERS\BEREND\DESKTOP\GIT\2ND-ADVANCED-GRAPHICS-PROGRAMMING\PROJECT\COMMON\WAVES.CPP
C:\USERS\BEREND\DESKTOP\GIT\2ND-ADVANCED-GRAPHICS-PROGRAMMING\PROJECT\CHAPTER 17 CUBE MAPPING\CUBEMAP\DEBUG\VC120.PDB
^C:\USERS\BEREND\DESKTOP\GIT\2ND-ADVANCED-GRAPHICS-PROGRAMMING\PROJECT\CHAPTER 17 CUBE MAPPING\CUBEMAP\CUBEMAPDEMO.CPP
C:\USERS\BEREND\DESKTOP\GIT\2ND-ADVANCED-GRAPHICS-PROGRAMMING\PROJECT\CHAPTER 17 CUBE MAPPING\CUBEMAP\DEBUG\VC120.PDB
^C:\USERS\BEREND\DESKTOP\GIT\2ND-ADVANCED-GRAPHICS-PROGRAMMING\PROJECT\CHAPTER 17 CUBE MAPPING\CUBEMAP\EFFECTS.CPP
C:\USERS\BEREND\DESKTOP\GIT\2ND-ADVANCED-GRAPHICS-PROGRAMMING\PROJECT\CHAPTER 17 CUBE MAPPING\CUBEMAP\DEBUG\VC120.PDB
^C:\USERS\BEREND\DESKTOP\GIT\2ND-ADVANCED-GRAPHICS-PROGRAMMING\PROJECT\CHAPTER 17 CUBE MAPPING\CUBEMAP\RENDERSTATES.CPP
C:\USERS\BEREND\DESKTOP\GIT\2ND-ADVANCED-GRAPHICS-PROGRAMMING\PROJECT\CHAPTER 17 CUBE MAPPING\CUBEMAP\DEBUG\VC120.PDB
^C:\USERS\BEREND\DESKTOP\GIT\2ND-ADVANCED-GRAPHICS-PROGRAMMING\PROJECT\CHAPTER 17 CUBE MAPPING\CUBEMAP\SKY.CPP
C:\USERS\BEREND\DESKTOP\GIT\2ND-ADVANCED-GRAPHICS-PROGRAMMING\PROJECT\CHAPTER 17 CUBE MAPPING\CUBEMAP\DEBUG\VC120.PDB
^C:\USERS\BEREND\DESKTOP\GIT\2ND-ADVANCED-GRAPHICS-PROGRAMMING\PROJECT\CHAPTER 17 CUBE MAPPING\CUBEMAP\VERTEX.CPP
C:\USERS\BEREND\DESKTOP\GIT\2ND-ADVANCED-GRAPHICS-PROGRAMMING\PROJECT\CHAPTER 17 CUBE MAPPING\CUBEMAP\DEBUG\VC120.PDB
