^C:\USERS\BEREND\DESKTOP\GIT\ADVANCED-GRAPHICS-PROGRAMMING\CHAPTER 22 AMBIENT OCCLUSION\SSAO\FX\BASIC.FX
^C:\USERS\BEREND\DESKTOP\GIT\ADVANCED-GRAPHICS-PROGRAMMING\CHAPTER 22 AMBIENT OCCLUSION\SSAO\FX\BUILDSHADOWMAP.FX
^C:\USERS\BEREND\DESKTOP\GIT\ADVANCED-GRAPHICS-PROGRAMMING\CHAPTER 22 AMBIENT OCCLUSION\SSAO\FX\DEBUGTEXTURE.FX
^C:\USERS\BEREND\DESKTOP\GIT\ADVANCED-GRAPHICS-PROGRAMMING\CHAPTER 22 AMBIENT OCCLUSION\SSAO\FX\DISPLACEMENTMAP.FX
^C:\USERS\BEREND\DESKTOP\GIT\ADVANCED-GRAPHICS-PROGRAMMING\CHAPTER 22 AMBIENT OCCLUSION\SSAO\FX\NORMALMAP.FX
^C:\USERS\BEREND\DESKTOP\GIT\ADVANCED-GRAPHICS-PROGRAMMING\CHAPTER 22 AMBIENT OCCLUSION\SSAO\FX\SKY.FX
^C:\USERS\BEREND\DESKTOP\GIT\ADVANCED-GRAPHICS-PROGRAMMING\CHAPTER 22 AMBIENT OCCLUSION\SSAO\FX\SSAO.FX
^C:\USERS\BEREND\DESKTOP\GIT\ADVANCED-GRAPHICS-PROGRAMMING\CHAPTER 22 AMBIENT OCCLUSION\SSAO\FX\SSAONORMALDEPTH.FX
^C:\USERS\BEREND\DESKTOP\GIT\ADVANCED-GRAPHICS-PROGRAMMING\CHAPTER 22 AMBIENT OCCLUSION\SSAO\FX\SSAOBLUR.FX
