^C:\USERS\BEREND\DESKTOP\GIT\ADVANCED-GRAPHICS-PROGRAMMING\CHAPTER 8 TEXTURING\CRATE\FX\BASIC.FX
C:\USERS\BEREND\DESKTOP\GIT\ADVANCED-GRAPHICS-PROGRAMMING\CHAPTER 8 TEXTURING\CRATE\FX\BASIC.FXO
^C:\USERS\BEREND\DESKTOP\GIT\2ND-ADVANCED-GRAPHICS-PROGRAMMING\PROJECT\CHAPTER 8 TEXTURING\CRATE\FX\BASIC.FX
C:\USERS\BEREND\DESKTOP\GIT\2ND-ADVANCED-GRAPHICS-PROGRAMMING\PROJECT\CHAPTER 8 TEXTURING\CRATE\FX\BASIC.FXO
